;meta[language=ru]
; id      |key(hex)|key(str)| text
    1|00000000||aзaзaзa!
    4|00000000||Лол, кек, супротек!
    5|00000000||А потом они пили чай.
    2|00000000||ПОТРАЧЕНО
    3|00000000||Надо было ставить Linux
    8|00000000||Смирись с этим...
    6|00000000||Можете положить его даже к сердечку, он защитит вас от выстрела из танка... Вероятней всего.
    7|00000000||MC4EP - активно развивающийся проект уютного пони-сервера https://minecraft.everypony.ru/
